Text Mining: Sentiment analysis
…
Transform data into a format amenable for analysis

tidy_books <- austen_books() %>%
  group_by(book) %>%
  mutate(linenumber = row_number(),
         chapter = cumsum(str_detect(text, 
                                     regex("^chapter",
                                           ignore_case = TRUE)))) %>%
  ungroup() %>%
  unnest_tokens(word, text)

Transform data into a format amenable for analysis

## # A tibble: 725,055 x 4
##    book                linenumber chapter word       
##    <fct>                    <int>   <int> <chr>      
##  1 Sense & Sensibility          1       0 sense      
##  2 Sense & Sensibility          1       0 and        
##  3 Sense & Sensibility          1       0 sensibility
##  4 Sense & Sensibility          3       0 by         
##  5 Sense & Sensibility          3       0 jane       
##  6 Sense & Sensibility          3       0 austen     
##  7 Sense & Sensibility          5       0 1811       
##  8 Sense & Sensibility         10       1 chapter    
##  9 Sense & Sensibility         10       1 1          
## 10 Sense & Sensibility         13       1 the        
## # ... with 725,045 more rows

Affinn sentiment datasets

From Finn Årup Nielsen

## # A tibble: 2,476 x 2
##    word       score
##    <chr>      <int>
##  1 abandon       -2
##  2 abandoned     -2
##  3 abandons      -2
##  4 abducted      -2
##  5 abduction     -2
##  6 abductions    -2
##  7 abhor         -3
##  8 abhorred      -3
##  9 abhorrent     -3
## 10 abhors        -3
## # ... with 2,466 more rows

NRC Sentiment datasets

from Saif Mohammad and Peter Turney

## # A tibble: 13,901 x 2
##    word        sentiment
##    <chr>       <chr>    
##  1 abacus      trust    
##  2 abandon     fear     
##  3 abandon     negative 
##  4 abandon     sadness  
##  5 abandoned   anger    
##  6 abandoned   fear     
##  7 abandoned   negative 
##  8 abandoned   sadness  
##  9 abandonment anger    
## 10 abandonment fear     
## # ... with 13,891 more rows

BingSentiment datasets

from Bing Liu and collaborators

## # A tibble: 6,788 x 2
##    word        sentiment
##    <chr>       <chr>    
##  1 2-faced     negative 
##  2 2-faces     negative 
##  3 a+          positive 
##  4 abnormal    negative 
##  5 abolish     negative 
##  6 abominable  negative 
##  7 abominably  negative 
##  8 abominate   negative 
##  9 abomination negative 
## 10 abort       negative 
## # ... with 6,778 more rows
…
Most common positive and negative words

bing_word_counts <- tidy_books %>%
  inner_join(get_sentiments("bing")) %>%
  count(word, sentiment, sort = TRUE) %>%
  ungroup()

## Joining, by = "word"

Most common positive and negative words

## # A tibble: 2,585 x 3
##    word     sentiment     n
##    <chr>    <chr>     <int>
##  1 miss     negative   1855
##  2 well     positive   1523
##  3 good     positive   1380
##  4 great    positive    981
##  5 like     positive    725
##  6 better   positive    639
##  7 enough   positive    613
##  8 happy    positive    534
##  9 love     positive    495
## 10 pleasure positive    462
## # ... with 2,575 more rows
…
